ETC5513-Assignment3
…
Add New Classification Variable for Education Level

final_data <- data |>
  mutate(Education_Level_Group = case_when(
    str_starts(Education_Level, "B") ~ "Bachelor",
    str_starts(Education_Level, "M") ~ "Master",
    str_detect(Education_Level, "8$|9$") ~ "Middle",
    TRUE ~ "High"
  ))

final_data |> group_by(Education_Level) |> select (Education_Level,Education_Level_Group)

# A tidytable: 1,000 × 2
# Groups:      Education_Level
   Education_Level Education_Level_Group
   <chr>           <chr>                
 1 Class 8         Middle               
 2 MSc             Master               
 3 BTech           Bachelor             
 4 BA              Bachelor             
 5 Class 11        High                 
 6 MSc             Master               
 7 MTech           Master               
 8 MTech           Master               
 9 BA              Bachelor             
10 Class 9         Middle               
# ℹ 990 more rows
…
